{
  "id": "LB9-13",
  "title": "Minimum Wage Reform (Lower Bound)",
  "long_title": "introduce a lower bound for the minimum wage, to ensure that future minimum wage rises adheres to that lower bound, and for connected purposes.",
  "effective_title": "Minimum Wage Reform (Lower Bound) Bill",
  "effective_long_title": "A bill to introduce a lower bound for the minimum wage, to ensure that future minimum wage rises adheres to that lower bound, and for connected purposes.",
  "type": "bill",
  "amends": [
    {
      "id": "b063",
      "title": "Minimum Wage Reform Act 2021",
      "type": "xombp"
    }
  ],
  "authors": {
    "2": {
      "party": "independent"
    }
  },
  "submission_type": "private",
  "stages": {
    "0": {
      "date": "2022-08-24",
      "type": "first",
      "house": "lords"
    },
    "1": {
      "date": "2023-04-21",
      "type": "royal_assent",
      "house": "royals"
    }
  },
  "versions": {
    "0": {
      "date": "2022-08-24",
      "id": "submitted",
      "title": "As submitted"
    }
  },
  "enacted": "2023-04-21",
  "chapter": 1
}