{
  "id": "LB11-01",
  "title": "Languages of the UK (Amendment)",
  "long_title": "amend the Languages of the UK Act 2020 to promote language learning and resolve certain issues.",
  "effective_title": "Languages of the UK (Amendment) Bill",
  "effective_long_title": "A bill to amend the Languages of the UK Act 2020 to promote language learning and resolve certain issues.",
  "type": "bill",
  "amends": [
    {
      "id": "b050",
      "title": "Languages of the UK Act 2020",
      "type": "xombp"
    }
  ],
  "authors": {
    "144": {
      "party": "independent"
    }
  },
  "submission_type": "private",
  "stages": {
    "0": {
      "date": "2023-04-21",
      "type": "first",
      "house": "lords"
    },
    "1": {
      "date": "2023-06-02",
      "type": "royal_assent",
      "house": "royals"
    },
    "2": {
      "date": "2023-06-02",
      "type": "royal_assent",
      "house": "royals"
    }
  },
  "versions": {
    "0": {
      "date": "2023-04-21",
      "id": "submitted",
      "title": "As submitted"
    }
  },
  "enacted": "2023-06-02",
  "chapter": 7
}